# ----nb tir----  ---Err Press--  --Err Visc 1--  --Err Visc 2--  --Err Visc 3--  --Err Vts 1---  --Err Vts 2---  --Err Vts 3--- 
  0.10000000E+01  0.49728845E-03  0.10000000E+03  0.10000000E+03  0.10000000E+03  0.10000000E+03  0.10000000E+03  0.10000000E+03
  0.20000000E+01  0.81306572E-03  0.10000000E+03  0.10000000E+03  0.10000000E+03  0.10000000E+03  0.10000000E+03  0.10000000E+03
  0.30000000E+01  0.95718100E-03  0.10000000E+03  0.10000000E+03  0.10000000E+03  0.10000000E+03  0.10000000E+03  0.10000000E+03
  0.40000000E+01  0.83835761E-03  0.10000000E+03  0.10000000E+03  0.10000000E+03  0.10000000E+03  0.10000000E+03  0.10000000E+03
  0.50000000E+01  0.73675576E-03  0.10000000E+03  0.10000000E+03  0.10000000E+03  0.10000000E+03  0.10000000E+03  0.10000000E+03
  0.60000000E+01  0.10818682E-02  0.10000000E+03  0.10000000E+03  0.10000000E+03  0.10000000E+03  0.10000000E+03  0.10000000E+03
  0.70000000E+01  0.10499800E-02  0.10000000E+03  0.10000000E+03  0.10000000E+03  0.10000000E+03  0.10000000E+03  0.10000000E+03
  0.80000000E+01  0.93863746E-03  0.10000000E+03  0.10000000E+03  0.10000000E+03  0.10000000E+03  0.10000000E+03  0.10000000E+03
  0.90000000E+01  0.90019192E-03  0.10000000E+03  0.10000000E+03  0.10000000E+03  0.10000000E+03  0.10000000E+03  0.10000000E+03
  0.10000000E+02  0.89603783E-03  0.10000000E+03  0.10000000E+03  0.10000000E+03  0.10000000E+03  0.10000000E+03  0.10000000E+03
